<?xml version="1.0" encoding="utf-8"?>
<!-- Generator: Adobe Illustrator 16.0.0, SVG Export Plug-In . SVG Version: 6.00 Build 0)  -->
<!DOCTYPE svg PUBLIC "-//W3C//DTD SVG 1.0//EN" "http://www.w3.org/TR/2001/REC-SVG-20010904/DTD/svg10.dtd">
<svg version="1.0" id="Layer_1" xmlns="http://www.w3.org/2000/svg" xmlns:xlink="http://www.w3.org/1999/xlink" x="0px" y="0px"
	 width="512px" height="512px" viewBox="0 0 512 512" enable-background="new 0 0 512 512" xml:space="preserve">
<g>
	<path fill="#3ADB76" d="M418.42,93.58c-21.182-21.181-45.799-37.817-73.17-49.445C316.926,32.101,286.898,26,256,26
		c-30.898,0-60.926,6.101-89.25,18.134c-27.371,11.628-51.989,28.264-73.17,49.445c-21.181,21.182-37.817,45.799-49.445,73.17
		C32.101,195.074,26,225.102,26,256s6.101,60.926,18.134,89.25c11.628,27.371,28.264,51.989,49.445,73.17
		c21.182,21.182,45.799,37.817,73.17,49.446C195.074,479.898,225.102,486,256,486c30.898,0,60.926-6.102,89.25-18.134
		c27.371-11.629,51.989-28.265,73.17-49.445c21.181-21.182,37.817-45.8,49.445-73.171C479.899,316.927,486,286.898,486,256
		c0-30.898-6.101-60.926-18.134-89.25C456.237,139.379,439.602,114.761,418.42,93.58z"/>
	<path fill="#FFFFFF" d="M256,6L256,6C118.5,6,6,118.5,6,256V256c0,137.5,112.5,250,250,250H256c137.5,0,250-112.5,250-250V256
		C506,118.5,393.5,6,256,6z M467.866,345.25c-11.628,27.371-28.264,51.989-49.445,73.171c-21.182,21.181-45.8,37.816-73.17,49.445
		C316.926,479.898,286.898,486,256,486c-30.898,0-60.926-6.102-89.25-18.134c-27.371-11.629-51.989-28.265-73.17-49.446
		c-21.181-21.181-37.817-45.799-49.445-73.17C32.101,316.926,26,286.897,26,256s6.101-60.926,18.134-89.25
		c11.628-27.371,28.264-51.989,49.445-73.17c21.182-21.181,45.8-37.817,73.17-49.445C195.074,32.101,225.102,26,256,26
		c30.898,0,60.926,6.101,89.25,18.134c27.371,11.628,51.989,28.264,73.17,49.445c21.181,21.182,37.817,45.8,49.445,73.17
		C479.899,195.074,486,225.102,486,256C486,286.898,479.899,316.927,467.866,345.25z"/>
</g>
</svg>
