<?xml version="1.0" encoding="utf-8"?>
<!-- Generator: Adobe Illustrator 16.0.0, SVG Export Plug-In . SVG Version: 6.00 Build 0)  -->
<!DOCTYPE svg PUBLIC "-//W3C//DTD SVG 1.0//EN" "http://www.w3.org/TR/2001/REC-SVG-20010904/DTD/svg10.dtd">
<svg version="1.0" id="Layer_1" xmlns="http://www.w3.org/2000/svg" xmlns:xlink="http://www.w3.org/1999/xlink" x="0px" y="0px"
	 width="512px" height="512px" viewBox="0 0 512 512" enable-background="new 0 0 512 512" xml:space="preserve">
<g>
	<path fill="#EF9D45" d="M466,26H46c-11.028,0-20,8.972-20,20v420c0,11.028,8.972,20,20,20h420c11.028,0,20-8.972,20-20V46
		C486,34.972,477.028,26,466,26z"/>
	<path fill="#FFFFFF" d="M466,6H46C24,6,6,24,6,46v420c0,22,18,40,40,40h420c22,0,40-18,40-40V46C506,24,488,6,466,6z M486,466
		c0,11.028-8.972,20-20,20H46c-11.028,0-20-8.972-20-20V46c0-11.028,8.972-20,20-20h420c11.028,0,20,8.972,20,20V466z"/>
</g>
<g>
	<path fill="#FFFFFF" d="M230.9,245.176h20.361c12.792-0.194,22.852-3.563,30.176-10.107c7.324-6.541,10.986-15.381,10.986-26.514
		c0-24.998-12.451-37.5-37.354-37.5c-11.719,0-21.071,3.347-28.052,10.034c-6.983,6.69-10.474,15.553-10.474,26.587h-27.1
		c0-16.894,6.175-30.931,18.53-42.114c12.353-11.181,28.052-16.772,47.095-16.772c20.116,0,35.889,5.324,47.314,15.967
		c11.426,10.646,17.139,25.44,17.139,44.385c0,9.279-3.003,18.263-9.009,26.953c-6.006,8.693-14.186,15.187-24.536,19.482
		c11.719,3.713,20.775,9.865,27.173,18.457c6.395,8.595,9.595,19.094,9.595,31.494c0,19.142-6.251,34.328-18.75,45.557
		c-12.501,11.231-28.761,16.846-48.779,16.846c-20.021,0-36.305-5.42-48.853-16.26c-12.55-10.84-18.823-25.145-18.823-42.92h27.246
		c0,11.231,3.662,20.215,10.986,26.953s17.139,10.107,29.443,10.107c13.085,0,23.094-3.417,30.029-10.254
		c6.933-6.834,10.4-16.648,10.4-29.443c0-12.4-3.809-21.922-11.426-28.564c-7.617-6.64-18.604-10.057-32.959-10.254H230.9V245.176z"
		/>
</g>
</svg>
